{
    "data": {
        "ControlCode": {
            "code": [
                "int main()",
                "{",
                "    int x = 1;",
                "    int y = 3;",
                "    ",
                "    for (int i = 1; i <= y; i++)",
                "    {",
                "        x *= i;",
                "    }",
                "    ",
                "    return 0;",
                "}"
            ],
            "executedLineWithStyle": [1,2,3,4,6,"6bc",7,"8c",9,"6c","6bc",7,"8c",9,"6c","6bc",7,"8c",9,"6c","6bc",11,12]
        },
        "Variables": {
            "variable": [
                {
                    "stepUntil": [7,12,17,23],
                    "start": 2,
                    "name": "x",
                    "type": "Integer",
                    "startingValue": [1]
                },
                {
                    "stepUntil": [23],
                    "start": 3,
                    "name": "y",
                    "type": "Integer",
                    "startingValue": [3]
                },
                {
                    "stepUntil": [9,14,19,20],
                    "start": 4,
                    "name": "i",
                    "type": "Integer",
                    "startingValue": [1]
                }
            ]
        },
        "Graph": {
            "graph": [
                "graph TB\na(Start)",
                "\na--> b[int x = 1]",
                "\nb --> c[int y = 3]",
                "\nc --> d[int i = 1]",
                "\nd --> e{i <= y}\ne --> |True|f[x *= i]\nf --> g[i++]\ng --> e\ne --> |False|h[Return 0]\nh --> i(End)"
            ],
            "specialNode":["e","g"]
        }
    }
}
